<?xml version="1.0" encoding="UTF-8"?>
<svg width="330px" height="330px" viewBox="0 0 330 330" version="1.1" xmlns="http://www.w3.org/2000/svg" xmlns:xlink="http://www.w3.org/1999/xlink">
    <title>Chat Favicon v2</title>
    <defs>
        <polygon id="path-1" points="69.8008655 39.7842692 179.04743 0 283.617906 49.9207507 322 166.731908 270.264696 265.737365 161.94448 302.012473 0 310.442425 58.7989549 251.941984 19.9875273 144.663833"></polygon>
    </defs>
    <g id="Chat-Favicon-v2" stroke="none" stroke-width="1" fill="none" fill-rule="evenodd">
        <g id="Group" transform="translate(4.000000, 10.000000)">
            <mask id="mask-2" fill="white">
                <use xlink:href="#path-1"></use>
            </mask>
            <use id="Mask" fill="#E7BF2D" xlink:href="#path-1"></use>
            <g mask="url(#mask-2)">
                <g transform="translate(-162.965309, -217.488650)">
                    <polygon id="Triangle-3" fill="#FED12F" fill-rule="nonzero" points="212.569868 211.448401 346.502657 217.48865 284.682781 396.005733 281.040409 406.7498"></polygon>
                    <polygon id="Triangle-3" fill="#FED12F" fill-rule="nonzero" points="201.073584 571.849951 422.549398 509.43404 402.415233 571.849951"></polygon>
                    <polygon id="Triangle-3" fill="#FFDD63" fill-rule="nonzero" transform="translate(393.052528, 199.580801) rotate(-53.000000) translate(-393.052528, -199.580801) " points="348.034172 169.595825 502.04048 101.570182 398.98614 297.591421 284.064576 268.645938"></polygon>
                    <polygon id="Triangle-3" fill="#FED12F" fill-rule="nonzero" points="159.798547 527.931075 281.610244 406.7498 337.779661 546.953707"></polygon>
                    <polygon id="Triangle-3" fill="#E8CA5D" fill-rule="nonzero" points="279.596827 406.589439 433.230004 483.226015 382.619812 325.575007"></polygon>
                    <polygon id="Triangle-3" fill="#E8CA5C" fill-rule="nonzero" transform="translate(173.590754, 388.651367) rotate(140.000000) translate(-173.590754, -388.651367) " points="102.039275 305.032723 186.705025 486.882693 245.142233 290.42004"></polygon>
                    <polygon id="Triangle-3" fill="#E8D079" fill-rule="nonzero" transform="translate(245.974173, 340.685396) rotate(-53.000000) translate(-245.974173, -340.685396) " points="184.501252 272.05564 307.447094 275.956658 215.012934 409.315153"></polygon>
                    <polygon id="Triangle-3" fill="#FFDD63" fill-rule="nonzero" transform="translate(340.440689, 479.612838) rotate(-53.000000) translate(-340.440689, -479.612838) " points="283.653873 516.15048 362.368766 387.581674 397.227505 571.644002"></polygon>
                    <polygon id="Triangle-3" fill="#FFDD63" fill-rule="nonzero" transform="translate(412.066251, 397.101401) rotate(-53.000000) translate(-412.066251, -397.101401) " points="356.020741 465.834612 451.963482 328.368189 468.111762 451.325677"></polygon>
                    <polygon id="Triangle-3" fill="#FFDD63" fill-rule="nonzero" transform="translate(109.999878, 252.636211) rotate(-53.000000) translate(-109.999878, -252.636211) " points="0.463616002 307.2498 166.167865 197.442936 219.536139 307.829487"></polygon>
                    <polygon id="Triangle-3" fill="#FEE382" fill-rule="nonzero" transform="translate(471.001890, 305.519335) rotate(-53.000000) translate(-471.001890, -305.519335) " points="401.795055 247.004074 540.208724 273.420181 416.551694 364.034595"></polygon>
                    <polygon id="Path-2" fill="#939393" fill-rule="evenodd" points="221.764264 469.430634 324.909789 519.501123 129.726118 556.863553 154.168686 483.226015"></polygon>
                </g>
            </g>
        </g>
    </g>
</svg>